certifi==2019.3.9
chardet==3.0.4
#cplex==12.9.0.0
cycler==0.10.0
decorator==4.4.0
docloud==1.0.369
#docplex==2.9.141
idna==2.8
kiwisolver==1.1.0
matplotlib==3.1.0
networkx==2.3
numpy==1.16.3
pkg-resources==0.0.0
PuLP==1.6.10
pyparsing==2.4.0
python-dateutil==2.8.0
requests==2.22.0
six==1.12.0
urllib3==1.25.3
